[
{"titulo": ["Sony PlayStation 4 Slim 1TB Mega Pack: Grand Theft Auto V Premium Edition/Days Gone/Horizon Zero Dawn Complete Edition/Fortnite jet black", "Sony PlayStation 4 Slim 1TB Mega Pack: Grand Theft Auto V Premium Edition/Days Gone/Horizon Zero Dawn Complete Edition/Fortnite jet black"], "precio": ["9,499", "9,499", "953", "9,499", "10,399", "866", "9,499"], "descripcion": ["No solo vas a poder descargar los mejores videojuegos y navegar en la web sin l\u00edmite, sino que, gracias a su interconectividad global, tambi\u00e9n vas a tener la posibilidad de competir en l\u00ednea con tus amigos y con personas de todas partes del mundo disfrutando de aventuras inolvidables.", "Calidad de otro nivel", "Vas a poder reproducir m\u00fasica, ver tus pel\u00edculas y series favoritas a trav\u00e9s de las aplicaciones descargables.", "Dise\u00f1o innovadorGracias a sus peque\u00f1as dimensiones, su consumo energ\u00e9tico es reducido, lo que la convierte en un producto econ\u00f3mico y accesible.", "No solo esto, el control DualShock combina funciones revolucionarias y sin precedentes mientras conserva precisi\u00f3n, comodidad y exactitud en cada movimiento.", "Adaptada a tus necesidades", "Guarda tus apps, fotos, videos y mucho m\u00e1s en el disco duro, que cuenta con una capacidad de 1 TB. Al contar con un procesador de 8 n\u00facleos y un procesador gr\u00e1fico, brinda una experiencia din\u00e1mica, respuestas \u00e1giles, y transiciones fluidas de im\u00e1genes en alta definici\u00f3n.", "Por otro lado, tiene puerto USB y salida HDMI, que permiten conectar accesorios y cargar la bater\u00eda de tu control mientras juegas."]},
{"titulo": ["Sony PlayStation 4 Slim 1TB The Last of Us Remastered/God of War/Horizon Zero Dawn Complete Edition jet black", "Sony PlayStation 4 Slim 1TB The Last of Us Remastered/God of War/Horizon Zero Dawn Complete Edition jet black"], "precio": ["11,990", "9,951", "9,951", "998", "11,990", "9,951", "9,951"], "descripcion": ["No solo vas a poder descargar los mejores videojuegos y navegar en la web sin l\u00edmite, sino que, gracias a su interconectividad global, tambi\u00e9n vas a tener la posibilidad de competir en l\u00ednea con tus amigos y con personas de todas partes del mundo disfrutando de aventuras inolvidables.", "Calidad de otro nivel", "Vas a poder reproducir m\u00fasica, ver tus pel\u00edculas y series favoritas a trav\u00e9s de las aplicaciones descargables.", "Dise\u00f1o innovadorGracias a sus peque\u00f1as dimensiones, su consumo energ\u00e9tico es reducido, lo que la convierte en un producto econ\u00f3mico y accesible.", "No solo esto, el control DualShock combina funciones revolucionarias y sin precedentes mientras conserva precisi\u00f3n, comodidad y exactitud en cada movimiento.", "Adaptada a tus necesidades", "Guarda tus apps, fotos, videos y mucho m\u00e1s en el disco duro, que cuenta con una capacidad de 1 TB. Al contar con un procesador de 8 n\u00facleos y un procesador gr\u00e1fico, brinda una experiencia din\u00e1mica, respuestas \u00e1giles, y transiciones fluidas de im\u00e1genes en alta definici\u00f3n.", "Por otro lado, tiene puerto USB y salida HDMI, que permiten conectar accesorios y cargar la bater\u00eda de tu control mientras juegas."]},
{"titulo": ["Sony PlayStation 4 Slim 1TB Hits Bundle: God of War/Gran Turismo Sport/Uncharted 4: A Thief's End jet black", "Sony PlayStation 4 Slim 1TB Hits Bundle: God of War/Gran Turismo Sport/Uncharted 4: A Thief's End jet black"], "precio": ["9,590", "962", "9,590"], "descripcion": ["No solo vas a poder descargar los mejores videojuegos y navegar en la web sin l\u00edmite, sino que, gracias a su interconectividad global, tambi\u00e9n vas a tener la posibilidad de competir en l\u00ednea con tus amigos y con personas de todas partes del mundo disfrutando de aventuras inolvidables.", "Calidad de otro nivel", "Vas a poder reproducir m\u00fasica, ver tus pel\u00edculas y series favoritas a trav\u00e9s de las aplicaciones descargables.", "Dise\u00f1o innovadorGracias a sus peque\u00f1as dimensiones, su consumo energ\u00e9tico es reducido, lo que la convierte en un producto econ\u00f3mico y accesible.", "No solo esto, el control DualShock combina funciones revolucionarias y sin precedentes mientras conserva precisi\u00f3n, comodidad y exactitud en cada movimiento.", "Adaptada a tus necesidades", "Guarda tus apps, fotos, videos y mucho m\u00e1s en el disco duro, que cuenta con una capacidad de 1 TB. Al contar con un procesador de 8 n\u00facleos y un procesador gr\u00e1fico, brinda una experiencia din\u00e1mica, respuestas \u00e1giles, y transiciones fluidas de im\u00e1genes en alta definici\u00f3n.", "Por otro lado, tiene puerto USB y salida HDMI, que permiten conectar accesorios y cargar la bater\u00eda de tu control mientras juegas."]},
{"titulo": ["Sony PlayStation 4 Slim 1TB Limited Edition Days of Play 2019 steel black", "Sony PlayStation 4 Slim 1TB Limited Edition Days of Play 2019 steel black"], "precio": ["10,600", "10,600", "1,063", "10,600", "10,600"], "descripcion": ["No solo vas a poder descargar los mejores videojuegos y navegar en la web sin l\u00edmite, sino que, gracias a su interconectividad global, tambi\u00e9n vas a tener la posibilidad de competir en l\u00ednea con tus amigos y con personas de todas partes del mundo disfrutando de aventuras inolvidables.", "Calidad de otro nivel", "Vas a poder reproducir m\u00fasica, ver tus pel\u00edculas y series favoritas a trav\u00e9s de las aplicaciones descargables.", "Dise\u00f1o innovadorGracias a sus peque\u00f1as dimensiones, su consumo energ\u00e9tico es reducido, lo que la convierte en un producto econ\u00f3mico y accesible.", "No solo esto, el control DualShock combina funciones revolucionarias y sin precedentes mientras conserva precisi\u00f3n, comodidad y exactitud en cada movimiento.", "Adaptada a tus necesidades", "Guarda tus apps, fotos, videos y mucho m\u00e1s en el disco duro, que cuenta con una capacidad de 1 TB. Al contar con un procesador de 8 n\u00facleos y un procesador gr\u00e1fico, brinda una experiencia din\u00e1mica, respuestas \u00e1giles, y transiciones fluidas de im\u00e1genes en alta definici\u00f3n.", "Por otro lado, tiene puerto USB y salida HDMI, que permiten conectar accesorios y cargar la bater\u00eda de tu control mientras juegas."]},
{"titulo": ["Sony PlayStation 4 Slim 1TB Fortnite Neo Versa Bundle jet black", "Sony PlayStation 4 Slim 1TB Fortnite Neo Versa Bundle jet black"], "precio": ["8,999", "8,999", "749", "8,999", "9,299", "933", "8,999"], "descripcion": ["No solo vas a poder descargar los mejores videojuegos y navegar en la web sin l\u00edmite, sino que, gracias a su interconectividad global, tambi\u00e9n vas a tener la posibilidad de competir en l\u00ednea con tus amigos y con personas de todas partes del mundo disfrutando de aventuras inolvidables.", "Calidad de otro nivel", "Vas a poder reproducir m\u00fasica, ver tus pel\u00edculas y series favoritas a trav\u00e9s de las aplicaciones descargables.", "Dise\u00f1o innovadorGracias a sus peque\u00f1as dimensiones, su consumo energ\u00e9tico es reducido, lo que la convierte en un producto econ\u00f3mico y accesible.", "No solo esto, el control DualShock combina funciones revolucionarias y sin precedentes mientras conserva precisi\u00f3n, comodidad y exactitud en cada movimiento.", "Adaptada a tus necesidades", "Guarda tus apps, fotos, videos y mucho m\u00e1s en el disco duro, que cuenta con una capacidad de 1 TB. Al contar con un procesador de 8 n\u00facleos y un procesador gr\u00e1fico, brinda una experiencia din\u00e1mica, respuestas \u00e1giles, y transiciones fluidas de im\u00e1genes en alta definici\u00f3n.", "Por otro lado, tiene puerto USB y salida HDMI, que permiten conectar accesorios y cargar la bater\u00eda de tu control mientras juegas."]},
{"titulo": ["Sony PlayStation 4 Pro 1TB Death Stranding Limited Edition blanco y negro", "Sony PlayStation 4 Pro 1TB Death Stranding Limited Edition blanco y negro"], "precio": ["16,789", "15,949", "15,949", "1,600", "16,789", "15,949", "17,100", "1,425", "15,949"], "descripcion": ["No solo vas a poder descargar los mejores videojuegos y navegar en la web sin l\u00edmite, sino que, gracias a su interconectividad global, tambi\u00e9n vas a tener la posibilidad de competir en l\u00ednea con tus amigos y con personas de todas partes del mundo disfrutando de aventuras inolvidables.", "Calidad de otro nivel", "Se considera que esta consola es la mejor dentro del mercado, dado que presenta una resoluci\u00f3n de hasta 4K.", "Vas a poder reproducir m\u00fasica, ver tus pel\u00edculas y series favoritas a trav\u00e9s de las aplicaciones descargables.", "Dise\u00f1o innovador", "No solo esto, el control DualShock combina funciones revolucionarias y sin precedentes mientras conserva precisi\u00f3n, comodidad y exactitud en cada movimiento.", "Adaptada a tus necesidades", "Guarda tus apps, fotos, videos y mucho m\u00e1s en el disco duro, que cuenta con una capacidad de 1 TB. Al contar con un procesador de 8 n\u00facleos y un procesador gr\u00e1fico, brinda una experiencia din\u00e1mica, respuestas \u00e1giles, y transiciones fluidas de im\u00e1genes en alta definici\u00f3n.", "Por otro lado, tiene puerto USB y salida HDMI, que permiten conectar accesorios y cargar la bater\u00eda de tu control mientras juegas."]},
{"titulo": ["Sony PlayStation 4 Slim 1TB FIFA 20 Bundle jet black", "Sony PlayStation 4 Slim 1TB FIFA 20 Bundle jet black"], "precio": ["11,990", "11,990", "1,203", "11,990", "11,990"], "descripcion": ["No solo vas a poder descargar los mejores videojuegos y navegar en la web sin l\u00edmite, sino que, gracias a su interconectividad global, tambi\u00e9n vas a tener la posibilidad de competir en l\u00ednea con tus amigos y con personas de todas partes del mundo disfrutando de aventuras inolvidables.", "Calidad de otro nivel", "Vas a poder reproducir m\u00fasica, ver tus pel\u00edculas y series favoritas a trav\u00e9s de las aplicaciones descargables.", "Dise\u00f1o innovadorGracias a sus peque\u00f1as dimensiones, su consumo energ\u00e9tico es reducido, lo que la convierte en un producto econ\u00f3mico y accesible.", "No solo esto, el control DualShock combina funciones revolucionarias y sin precedentes mientras conserva precisi\u00f3n, comodidad y exactitud en cada movimiento.", "Adaptada a tus necesidades", "Guarda tus apps, fotos, videos y mucho m\u00e1s en el disco duro, que cuenta con una capacidad de 1 TB. Al contar con un procesador de 8 n\u00facleos y un procesador gr\u00e1fico, brinda una experiencia din\u00e1mica, respuestas \u00e1giles, y transiciones fluidas de im\u00e1genes en alta definici\u00f3n.", "Por otro lado, tiene puerto USB y salida HDMI, que permiten conectar accesorios y cargar la bater\u00eda de tu control mientras juegas."]},
{"titulo": ["Sony PlayStation 4 Slim 1TB Hits Bundle: Days Gone/Detroit: Become Human/Tom Clancy's Rainbow Six Siege Deluxe Edition jet black", "Sony PlayStation 4 Slim 1TB Hits Bundle: Days Gone/Detroit: Become Human/Tom Clancy's Rainbow Six Siege Deluxe Edition jet black"], "precio": ["9,590", "9,590", "962", "9,590", "9,590"], "descripcion": ["No solo vas a poder descargar los mejores videojuegos y navegar en la web sin l\u00edmite, sino que, gracias a su interconectividad global, tambi\u00e9n vas a tener la posibilidad de competir en l\u00ednea con tus amigos y con personas de todas partes del mundo disfrutando de aventuras inolvidables.", "Calidad de otro nivel", "Vas a poder reproducir m\u00fasica, ver tus pel\u00edculas y series favoritas a trav\u00e9s de las aplicaciones descargables.", "Dise\u00f1o innovadorGracias a sus peque\u00f1as dimensiones, su consumo energ\u00e9tico es reducido, lo que la convierte en un producto econ\u00f3mico y accesible.", "No solo esto, el control DualShock combina funciones revolucionarias y sin precedentes mientras conserva precisi\u00f3n, comodidad y exactitud en cada movimiento.", "Adaptada a tus necesidades", "Guarda tus apps, fotos, videos y mucho m\u00e1s en el disco duro, que cuenta con una capacidad de 1 TB. Al contar con un procesador de 8 n\u00facleos y un procesador gr\u00e1fico, brinda una experiencia din\u00e1mica, respuestas \u00e1giles, y transiciones fluidas de im\u00e1genes en alta definici\u00f3n.", "Por otro lado, tiene puerto USB y salida HDMI, que permiten conectar accesorios y cargar la bater\u00eda de tu control mientras juegas."]},
{"titulo": ["Sony PlayStation 4 Pro 1TB Fortnite jet black", "Sony PlayStation 4 Pro 1TB Fortnite jet black"], "precio": ["11,599", "11,599", "966", "11,599", "11,599"], "descripcion": ["No solo vas a poder descargar los mejores videojuegos y navegar en la web sin l\u00edmite, sino que, gracias a su interconectividad global, tambi\u00e9n vas a tener la posibilidad de competir en l\u00ednea con tus amigos y con personas de todas partes del mundo disfrutando de aventuras inolvidables.", "Calidad de otro nivel", "Se considera que esta consola es la mejor dentro del mercado, dado que presenta una resoluci\u00f3n de hasta 4K.", "Vas a poder reproducir m\u00fasica, ver tus pel\u00edculas y series favoritas a trav\u00e9s de las aplicaciones descargables.", "Dise\u00f1o innovador", "No solo esto, el control DualShock combina funciones revolucionarias y sin precedentes mientras conserva precisi\u00f3n, comodidad y exactitud en cada movimiento.", "Adaptada a tus necesidades", "Guarda tus apps, fotos, videos y mucho m\u00e1s en el disco duro, que cuenta con una capacidad de 1 TB. Al contar con un procesador de 8 n\u00facleos y un procesador gr\u00e1fico, brinda una experiencia din\u00e1mica, respuestas \u00e1giles, y transiciones fluidas de im\u00e1genes en alta definici\u00f3n.", "Por otro lado, tiene puerto USB y salida HDMI, que permiten conectar accesorios y cargar la bater\u00eda de tu control mientras juegas."]},
{},
{},
{"titulo": ["Sony PlayStation 4 Slim 1TB Limited Edition Days of Play 2019 steel black"], "precio": ["10,600", "1,063", "10,700", "1,073", "11,990", "1,203"]},
{}
]